<svg width="60" height="60" viewBox="0 0 60 60" fill="none" xmlns="http://www.w3.org/2000/svg">
<path d="M58.75 25C58.5 25 58.25 25 58 24.75L51.75 20.5C51.25 20.25 50.5 20 49.75 20H33.75C31.75 20 30 18.25 30 16.25V3.75C30 1.75 31.75 0 33.75 0H56.25C58.25 0 60 1.75 60 3.75V23.75C60 24.25 59.75 24.75 59.25 24.75C59.25 25 59 25 58.75 25ZM33.75 2.5C33 2.5 32.5 3 32.5 3.75V16.25C32.5 17 33 17.5 33.75 17.5H49.75C51 17.5 52.25 17.75 53.25 18.5L57.5 21.5V3.75C57.5 3 57 2.5 56.25 2.5H33.75Z" fill="url(#paint0_linear)"/>
<path d="M1.25 30C1 30 0.75 30 0.75 29.75C0.25 29.75 0 29.25 0 28.75V8.75C0 6.75 1.75 5 3.75 5H23.75C24.5 5 25 5.5 25 6.25C25 7 24.5 7.5 23.75 7.5H3.75C3 7.5 2.5 8 2.5 8.75V26.5L6.75 23.75C7.75 23 9 22.5 10.25 22.5H31.25C32 22.5 32.5 23 32.5 23.75C32.5 24.5 32 25 31.25 25H10.25C9.5 25 8.75 25.25 8.25 25.75L2 30C1.75 30 1.5 30 1.25 30Z" fill="url(#paint1_linear)"/>
<path d="M13.7501 45C9.50006 45 6.25006 41.75 6.25006 37.5C6.25006 33.25 9.50006 30 13.7501 30C18.0001 30 21.2501 33.25 21.2501 37.5C21.2501 41.75 18.0001 45 13.7501 45ZM13.7501 32.5C11.0001 32.5 8.75006 34.75 8.75006 37.5C8.75006 40.25 11.0001 42.5 13.7501 42.5C16.5001 42.5 18.7501 40.25 18.7501 37.5C18.7501 34.75 16.5001 32.5 13.7501 32.5Z" fill="url(#paint2_linear)"/>
<path d="M26.25 60C25.5 60 25 59.5 25 58.75V53.75C25 51.75 23.25 50 21.25 50H6.25C4.25 50 2.5 51.75 2.5 53.75V58.75C2.5 59.5 2 60 1.25 60C0.5 60 0 59.5 0 58.75V53.75C0 50.25 2.75 47.5 6.25 47.5H21.25C24.75 47.5 27.5 50.25 27.5 53.75V58.75C27.5 59.5 27 60 26.25 60Z" fill="url(#paint3_linear)"/>
<path d="M46.2499 45C41.9999 45 38.7499 41.75 38.7499 37.5C38.7499 33.25 41.9999 30 46.2499 30C50.4999 30 53.7499 33.25 53.7499 37.5C53.7499 41.75 50.4999 45 46.2499 45ZM46.2499 32.5C43.4999 32.5 41.2499 34.75 41.2499 37.5C41.2499 40.25 43.4999 42.5 46.2499 42.5C48.9999 42.5 51.2499 40.25 51.2499 37.5C51.2499 34.75 48.9999 32.5 46.2499 32.5Z" fill="url(#paint4_linear)"/>
<path d="M58.75 60C58 60 57.5 59.5 57.5 58.75V53.75C57.5 51.75 55.75 50 53.75 50H38.7501C36.7501 50 35.0001 51.75 35.0001 53.75V58.75C35.0001 59.5 34.5001 60 33.7501 60C33.0001 60 32.5001 59.5 32.5001 58.75V53.75C32.5001 50.25 35.2501 47.5 38.7501 47.5H53.75C57.25 47.5 60 50.25 60 53.75V58.75C60 59.5 59.5 60 58.75 60Z" fill="url(#paint5_linear)"/>
<defs>
<linearGradient id="paint0_linear" x1="30.001" y1="12.4989" x2="60.0006" y2="12.4989" gradientUnits="userSpaceOnUse">
<stop offset="5.59418e-07" stop-color="#02C785"/>
<stop offset="0.1497" stop-color="#02BE8C"/>
<stop offset="0.3896" stop-color="#03A79F"/>
<stop offset="0.6897" stop-color="#0481BE"/>
<stop offset="1" stop-color="#0652E4"/>
</linearGradient>
<linearGradient id="paint1_linear" x1="0.00113096" y1="17.4989" x2="32.5007" y2="17.4989" gradientUnits="userSpaceOnUse">
<stop offset="5.59418e-07" stop-color="#02C785"/>
<stop offset="0.1497" stop-color="#02BE8C"/>
<stop offset="0.3896" stop-color="#03A79F"/>
<stop offset="0.6897" stop-color="#0481BE"/>
<stop offset="1" stop-color="#0652E4"/>
</linearGradient>
<linearGradient id="paint2_linear" x1="6.25058" y1="37.4994" x2="21.2504" y2="37.4994" gradientUnits="userSpaceOnUse">
<stop offset="5.59418e-07" stop-color="#02C785"/>
<stop offset="0.1497" stop-color="#02BE8C"/>
<stop offset="0.3896" stop-color="#03A79F"/>
<stop offset="0.6897" stop-color="#0481BE"/>
<stop offset="1" stop-color="#0652E4"/>
</linearGradient>
<linearGradient id="paint3_linear" x1="0.000956965" y1="53.7495" x2="27.5006" y2="53.7495" gradientUnits="userSpaceOnUse">
<stop offset="5.59418e-07" stop-color="#02C785"/>
<stop offset="0.1497" stop-color="#02BE8C"/>
<stop offset="0.3896" stop-color="#03A79F"/>
<stop offset="0.6897" stop-color="#0481BE"/>
<stop offset="1" stop-color="#0652E4"/>
</linearGradient>
<linearGradient id="paint4_linear" x1="38.7505" y1="37.4994" x2="53.7502" y2="37.4994" gradientUnits="userSpaceOnUse">
<stop offset="5.59418e-07" stop-color="#02C785"/>
<stop offset="0.1497" stop-color="#02BE8C"/>
<stop offset="0.3896" stop-color="#03A79F"/>
<stop offset="0.6897" stop-color="#0481BE"/>
<stop offset="1" stop-color="#0652E4"/>
</linearGradient>
<linearGradient id="paint5_linear" x1="32.501" y1="53.7495" x2="60.0006" y2="53.7495" gradientUnits="userSpaceOnUse">
<stop offset="5.59418e-07" stop-color="#02C785"/>
<stop offset="0.1497" stop-color="#02BE8C"/>
<stop offset="0.3896" stop-color="#03A79F"/>
<stop offset="0.6897" stop-color="#0481BE"/>
<stop offset="1" stop-color="#0652E4"/>
</linearGradient>
</defs>
</svg>
